{
  "project_info": {
    "project_number": "284500158418",
    "firebase_url": "https://gcp-tutorials-289507.firebaseio.com",
    "project_id": "gcp-tutorials-289507",
    "storage_bucket": "gcp-tutorials-289507.appspot.com"
  },
  "client": [
    {
      "client_info": {
        "mobilesdk_app_id": "1:284500158418:android:096e3ccf2e2644fa2aca0b",
        "android_client_info": {
          "package_name": "com.example.appfirebase"
        }
      },
      "oauth_client": [
        {
          "client_id": "284500158418-obiud7f3jvlj4evhkfhh9m3mdjqtesk0.apps.googleusercontent.com",
          "client_type": 3
        }
      ],
      "api_key": [
        {
          "current_key": "AIzaSyC5sJY31moI_lQSsJEMPj3LSpQql0XwmN8"
        }
      ],
      "services": {
        "appinvite_service": {
          "other_platform_oauth_client": [
            {
              "client_id": "284500158418-obiud7f3jvlj4evhkfhh9m3mdjqtesk0.apps.googleusercontent.com",
              "client_type": 3
            }
          ]
        }
      }
    },
    {
      "client_info": {
        "mobilesdk_app_id": "1:284500158418:android:c17725c3048b4ca42aca0b",
        "android_client_info": {
          "package_name": "com.example.appfirebasestorage"
        }
      },
      "oauth_client": [
        {
          "client_id": "284500158418-obiud7f3jvlj4evhkfhh9m3mdjqtesk0.apps.googleusercontent.com",
          "client_type": 3
        }
      ],
      "api_key": [
        {
          "current_key": "AIzaSyC5sJY31moI_lQSsJEMPj3LSpQql0XwmN8"
        }
      ],
      "services": {
        "appinvite_service": {
          "other_platform_oauth_client": [
            {
              "client_id": "284500158418-obiud7f3jvlj4evhkfhh9m3mdjqtesk0.apps.googleusercontent.com",
              "client_type": 3
            }
          ]
        }
      }
    },
    {
      "client_info": {
        "mobilesdk_app_id": "1:284500158418:android:fdc4ea2ddfdba7442aca0b",
        "android_client_info": {
          "package_name": "com.example.firebasecloudmessaging"
        }
      },
      "oauth_client": [
        {
          "client_id": "284500158418-obiud7f3jvlj4evhkfhh9m3mdjqtesk0.apps.googleusercontent.com",
          "client_type": 3
        }
      ],
      "api_key": [
        {
          "current_key": "AIzaSyC5sJY31moI_lQSsJEMPj3LSpQql0XwmN8"
        }
      ],
      "services": {
        "appinvite_service": {
          "other_platform_oauth_client": [
            {
              "client_id": "284500158418-obiud7f3jvlj4evhkfhh9m3mdjqtesk0.apps.googleusercontent.com",
              "client_type": 3
            }
          ]
        }
      }
    }
  ],
  "configuration_version": "1"
}